<?xml version="1.0" encoding="utf-8"?>
<!-- Generator: Adobe Illustrator 23.0.0, SVG Export Plug-In . SVG Version: 6.00 Build 0)  -->
<svg version="1.1" id="Capa_1" xmlns="http://www.w3.org/2000/svg" xmlns:xlink="http://www.w3.org/1999/xlink" x="0px" y="0px"
	 viewBox="0 0 8 15" style="enable-background:new 0 0 8 15;" xml:space="preserve">
<style type="text/css">
	.st0{fill:#FFFFFF;}
</style>
<g>
	<path id="Chevron_Right" class="st0" d="M0.2,8l6.5,6.7c0.3,0.3,0.8,0.3,1,0c0.3-0.3,0.3-0.8,0-1.1l-6-6.2l6-6.2
		c0.3-0.3,0.3-0.8,0-1.1c-0.3-0.3-0.8-0.3-1,0L0.2,7C-0.1,7.3-0.1,7.7,0.2,8z"/>
</g>
</svg>
