<?xml version="1.0" encoding="utf-8"?>
<!-- Generator: Adobe Illustrator 23.0.0, SVG Export Plug-In . SVG Version: 6.00 Build 0)  -->
<svg version="1.1" id="Capa_1" xmlns="http://www.w3.org/2000/svg" xmlns:xlink="http://www.w3.org/1999/xlink" x="0px" y="0px"
	 viewBox="0 0 50 50" style="enable-background:new 0 0 50 50;" xml:space="preserve">
<style type="text/css">
	.st0{fill:#EEF6FF;}
	.st1{fill:url(#SVGID_1_);}
	.st2{fill:#FFFFFF;}
</style>
<circle class="st0" cx="25" cy="25" r="25"/>
<linearGradient id="SVGID_1_" gradientUnits="userSpaceOnUse" x1="25" y1="8.2523" x2="25" y2="41.8098">
	<stop  offset="0" style="stop-color:#0083FF"/>
	<stop  offset="1" style="stop-color:#006CFF"/>
</linearGradient>
<circle class="st1" cx="25" cy="25" r="17.5"/>
<g>
	<g>
		<path class="st2" d="M25,30.5c0.1,0,0.2,0,0.3-0.1l5.1-5.3c0.1-0.1,0.1-0.2,0.1-0.3c0-0.1,0-0.2-0.1-0.3L29.8,24
			c-0.1-0.1-0.2-0.1-0.3-0.1c-0.1,0-0.2,0-0.3,0.1L25,28.5L20.7,24c-0.1-0.1-0.2-0.1-0.3-0.1s-0.2,0-0.3,0.1l-0.6,0.6
			c-0.1,0.1-0.1,0.2-0.1,0.3c0,0.1,0,0.2,0.1,0.3l5.1,5.3C24.8,30.5,24.9,30.5,25,30.5z"/>
		<path class="st2" d="M25.3,26l5.1-5.3c0.1-0.1,0.1-0.2,0.1-0.3s0-0.2-0.1-0.3l-0.6-0.6c-0.1-0.1-0.2-0.1-0.3-0.1
			c-0.1,0-0.2,0-0.3,0.1L25,24.1l-4.3-4.5c-0.1-0.1-0.2-0.1-0.3-0.1c-0.1,0-0.2,0-0.3,0.1l-0.6,0.6c-0.1,0.1-0.1,0.2-0.1,0.3
			s0,0.2,0.1,0.3l5.1,5.3c0.1,0.1,0.2,0.1,0.3,0.1C25.1,26.1,25.2,26.1,25.3,26z"/>
	</g>
</g>
</svg>
