<?xml version="1.0" encoding="utf-8"?>
<!-- Generator: Adobe Illustrator 23.0.0, SVG Export Plug-In . SVG Version: 6.00 Build 0)  -->
<svg version="1.1" id="Слой_1" xmlns="http://www.w3.org/2000/svg" xmlns:xlink="http://www.w3.org/1999/xlink" x="0px" y="0px"
	 viewBox="0 0 50 50" style="enable-background:new 0 0 50 50;" xml:space="preserve">
<style type="text/css">
	.st0{fill:#FFF2DB;}
	.st1{fill:url(#SVGID_1_);}
	.st2{fill:#FFFFFF;}
</style>
<circle class="st0" cx="25" cy="25" r="25"/>
<linearGradient id="SVGID_1_" gradientUnits="userSpaceOnUse" x1="7.5" y1="25" x2="42.5" y2="25">
	<stop  offset="0" style="stop-color:#FEAB0B"/>
	<stop  offset="1" style="stop-color:#FF8E09"/>
</linearGradient>
<circle class="st1" cx="25" cy="25" r="17.5"/>
<path class="st2" d="M18.2,25.6c-0.1-0.1-0.2-0.3-0.2-0.4s0.1-0.3,0.2-0.4l0.8-0.8c0.2-0.2,0.5-0.2,0.8,0l0.1,0.1l3,3.2
	c0.1,0.1,0.3,0.1,0.4,0l7.2-7.6h0.1l0,0c0.2-0.2,0.5-0.2,0.8,0l0.8,0.8c0.2,0.2,0.2,0.5,0,0.8l0,0l-8.6,9.1
	c-0.1,0.1-0.2,0.2-0.4,0.2c-0.2,0-0.3-0.1-0.4-0.2l-4.2-4.6C18.3,25.7,18.2,25.6,18.2,25.6z"/>
</svg>
