<?xml version="1.0" encoding="utf-8"?>
<!-- Generator: Adobe Illustrator 23.0.0, SVG Export Plug-In . SVG Version: 6.00 Build 0)  -->
<svg version="1.1" id="Слой_1" xmlns="http://www.w3.org/2000/svg" xmlns:xlink="http://www.w3.org/1999/xlink" x="0px" y="0px"
	 viewBox="0 0 512 512" style="enable-background:new 0 0 512 512;" xml:space="preserve">
<style type="text/css">
	.st0{fill:#FFFFFF;}
	.st1{fill:#FF9409;}
</style>
<path class="st0" d="M426.3,8.5v400.6h-17.1v-392H125.7c-13,0-23.6,10.6-23.6,23.6v368.4H85V40.7C85,18.2,103.2,0,125.7,0h292.1
	C422.5,0,426.3,3.8,426.3,8.5z"/>
<path class="st1" d="M383.6,17.1v119.5c0,3.4-2.1,6.6-5.3,7.9c-1,0.4-2.1,0.7-3.3,0.7c-2.3,0-4.4-0.9-6-2.5l-28.1-28.1l-28.1,28.1
	c-1.6,1.6-3.8,2.5-6,2.5c-4.7,0-8.5-3.8-8.5-8.5V17.1h17.1V116L335,96.4c3.3-3.3,8.7-3.3,12.1,0l19.6,19.6V17.1H383.6z"/>
<path class="st0" d="M178.8,179.2v-17.1h-42.7c-4.7,0-8.5,3.8-8.5,8.5v51.2c0,4.7,3.8,8.5,8.5,8.5h34.1c4.7,0,8.5-3.8,8.5-8.5v-25.6
	h-17.1v17.1h-17.1v-34.1L178.8,179.2L178.8,179.2z"/>
<path class="st0" d="M213.4,230.4c18.6,0,33.7-15.1,33.7-33.7v-0.9c0-18.6-15.1-33.7-33.7-33.7h-9c-4.7,0-8.5,3.8-8.5,8.5v51.2
	c0,4.7,3.8,8.5,8.5,8.5L213.4,230.4L213.4,230.4z M212.9,179.2h0.4c9.2,0,16.6,7.4,16.6,16.6v0.9c0,9.2-7.4,16.6-16.6,16.7h-0.4
	V179.2z"/>
<path class="st0" d="M281.2,213.3h25.6c4.7,0,8.5-3.8,8.5-8.5v-34.1c0-4.7-3.8-8.5-8.5-8.5h-34.1c-4.7,0-8.5,3.8-8.5,8.5v59.7h17.1
	v-17.1H281.2z M281.2,179.2h17.1v17.1h-17.1V179.2z"/>
<path class="st0" d="M383.6,204.8v-34.1c0-4.7-3.8-8.5-8.5-8.5H341c-4.7,0-8.5,3.8-8.5,8.5v59.7h17.1v-17.1h9.1l8.9,17.4l15.2-7.8
	l-5.2-10.1C381.1,211.8,383.6,208.5,383.6,204.8z M366.5,196.3h-17.1v-17.1h17.1V196.3z"/>
<path class="st0" d="M281.2,256h93.9v17.1h-93.9V256z"/>
<path class="st0" d="M136.1,315.7H375v17.1H136.1V315.7z"/>
<path class="st0" d="M136.1,375.5H375v17.1H136.1V375.5z"/>
<path class="st0" d="M503.1,443.7h-42.7v17.1h34.1v8.5c0,14-11.3,25.4-25.3,25.6l-4.9-0.4c-12.2-2.2-21-12.8-21-25.2v-34.1
	c0-2.4-1-4.7-2.8-6.3c-1.8-1.6-4.2-2.4-6.6-2.2l-169.8,17h-50.8l-171-17c-23.6,0.2-42.5,19.4-42.3,43s19.5,42.5,43.1,42.3h0.1
	L213,494.9h50.9l198.4,16.5c23.3,3.7,45.1-12.1,48.9-35.4c0.4-2.2,0.5-4.5,0.5-6.8v-17.1C511.6,447.5,507.8,443.7,503.1,443.7z
	 M204.4,478.7L42.3,494.9c-14.1,0.2-25.8-11-26-25.2c-0.2-14.1,11-25.8,25.2-26l163,16.2v18.8H204.4z M255.6,477.9h-34.1v-17.1h34.1
	V477.9z M272.7,478.6V460l153.6-15.4v24.7c0,8,2.2,15.8,6.5,22.6L272.7,478.6z"/>
</svg>
